# 3ds Max Wavefront OBJ Exporter v0.97b - (c)2007 guruware
# File Created: 28.08.2020 14:15:14

newmtl 4
	Ns 19.0000
	Ni 1.5000
	d 1.0000
	Tr 0.0000
	Tf 1.0000 1.0000 1.0000 
	illum 2
	Ka 0.2039 0.6235 0.0000
	Kd 0.2039 0.6235 0.0000
	Ks 0.2700 0.2700 0.2700
	Ke 0.0000 0.0000 0.0000
