# 3ds Max Wavefront OBJ Exporter v0.97b - (c)2007 guruware
# File Created: 05.08.2020 17:38:06

mtllib Inward_Green.mtl

#
# object Inward
#

v  16.3959 4.5559 0.0381
v  15.3496 3.7817 0.0381
v  16.2798 3.0275 0.0381
v  17.6350 5.1765 0.0381
v  17.2225 4.4661 0.0381
v  16.7560 3.7463 0.0381
v  17.4726 4.8474 0.0381
v  17.7749 5.4949 0.0381
v  17.6350 5.1765 -0.0381
v  17.4726 4.8474 -0.0381
v  17.2225 4.4661 -0.0381
v  16.3959 4.5559 -0.0381
v  16.2798 3.0275 -0.0381
v  16.7560 3.7463 -0.0381
v  15.3496 3.7817 -0.0381
v  17.7749 5.4949 -0.0381
v  1.5574 -0.7790 -0.0381
v  1.5574 -0.7790 0.0381
v  6.8702 3.2922 0.0381
v  6.8702 3.2922 -0.0381
v  6.8702 0.9789 0.0381
v  6.8702 0.9789 -0.0381
v  13.8703 2.8657 -0.0381
v  13.8703 2.8657 0.0381
v  12.1721 1.9024 -0.0381
v  12.1721 1.9024 0.0381
v  15.4078 1.7309 0.0381
v  15.4078 1.7309 -0.0381
v  14.6330 0.6932 0.0381
v  14.6330 0.6932 -0.0381
v  10.7376 1.3575 -0.0381
v  10.7376 1.3575 0.0381
v  13.8366 -0.2453 0.0381
v  13.8366 -0.2453 -0.0381
v  13.0222 -0.9725 0.0381
v  13.0222 -0.9725 -0.0381
v  12.2927 -1.5368 0.0381
v  12.2927 -1.5368 -0.0381
v  11.4251 -2.0535 0.0381
v  11.4251 -2.0535 -0.0381
v  10.5853 -2.3852 0.0381
v  10.5853 -2.3852 -0.0381
v  9.3672 1.0915 -0.0381
v  9.3672 1.0915 0.0381
v  8.0410 1.0367 -0.0381
v  8.0410 1.0367 0.0381
v  9.5697 -2.5860 0.0381
v  9.5697 -2.5860 -0.0381
v  8.3477 -2.6354 0.0381
v  8.3477 -2.6354 -0.0381
v  6.8702 -2.6111 0.0381
v  6.8702 -2.6111 -0.0381
v  6.8702 -5.4949 0.0381
v  6.8702 -5.4949 -0.0381
v  -16.3959 4.5559 0.0381
v  -17.7749 5.4949 0.0381
v  -17.6350 5.1765 0.0381
v  -16.2798 3.0275 0.0381
v  -17.2225 4.4661 0.0381
v  -17.4726 4.8474 0.0381
v  -16.7560 3.7463 0.0381
v  -15.3496 3.7817 0.0381
v  -17.6350 5.1765 -0.0381
v  -17.7749 5.4949 -0.0381
v  -16.3959 4.5559 -0.0381
v  -17.2225 4.4661 -0.0381
v  -16.2798 3.0275 -0.0381
v  -15.3496 3.7817 -0.0381
v  -16.7560 3.7463 -0.0381
v  -17.4726 4.8474 -0.0381
v  -1.5574 -0.7790 -0.0381
v  -6.8702 3.2922 -0.0381
v  -6.8702 3.2922 0.0381
v  -1.5574 -0.7790 0.0381
v  -6.8702 0.9789 -0.0381
v  -6.8702 0.9789 0.0381
v  -13.8703 2.8657 -0.0381
v  -13.8703 2.8657 0.0381
v  -12.1721 1.9024 -0.0381
v  -12.1721 1.9024 0.0381
v  -15.4078 1.7309 -0.0381
v  -15.4078 1.7309 0.0381
v  -14.6330 0.6932 -0.0381
v  -14.6330 0.6932 0.0381
v  -10.7376 1.3575 -0.0381
v  -10.7376 1.3575 0.0381
v  -13.8366 -0.2453 -0.0381
v  -13.8366 -0.2453 0.0381
v  -13.0222 -0.9725 -0.0381
v  -13.0222 -0.9725 0.0381
v  -12.2927 -1.5368 -0.0381
v  -12.2927 -1.5368 0.0381
v  -11.4251 -2.0535 -0.0381
v  -11.4251 -2.0535 0.0381
v  -10.5853 -2.3852 -0.0381
v  -10.5853 -2.3852 0.0381
v  -9.3672 1.0915 -0.0381
v  -9.3672 1.0915 0.0381
v  -8.0410 1.0367 -0.0381
v  -8.0410 1.0367 0.0381
v  -9.5697 -2.5860 -0.0381
v  -9.5697 -2.5860 0.0381
v  -8.3477 -2.6354 -0.0381
v  -8.3477 -2.6354 0.0381
v  -6.8702 -2.6111 -0.0381
v  -6.8702 -2.6111 0.0381
v  -6.8702 -5.4949 -0.0381
v  -6.8702 -5.4949 0.0381
# 108 vertices

vn 0.0000 0.0000 -1.0000
vn 0.0000 0.0000 1.0000
vn 0.6082 -0.7937 -0.0000
vn -1.0000 0.0000 -0.0000
vn 0.5789 -0.8154 -0.0000
vn 0.5628 -0.8266 -0.0000
vn -0.9155 0.4023 -0.0000
vn -0.9063 0.4226 -0.0000
vn -0.8681 0.4964 -0.0000
vn -0.8377 0.5461 -0.0000
vn 0.5611 -0.8277 -0.0000
vn 0.5100 -0.8602 -0.0000
vn -0.8364 0.5481 -0.0000
vn -0.8317 0.5552 -0.0000
vn 0.4255 -0.9050 -0.0000
vn -0.8158 0.5784 -0.0000
vn -0.7823 0.6229 -0.0000
vn 0.2738 -0.9618 -0.0000
vn -0.7160 0.6981 -0.0000
vn -0.6393 0.7689 -0.0000
vn -0.5628 0.8266 -0.0000
vn -0.4410 0.8975 -0.0000
vn -0.2818 0.9595 -0.0000
vn 0.1162 -0.9932 -0.0000
vn 0.0453 -0.9990 -0.0000
vn 0.0494 -0.9988 -0.0000
vn -0.1175 0.9931 -0.0000
vn -0.0120 0.9999 -0.0000
vn 0.0164 0.9999 -0.0000
vn 0.6638 0.7479 -0.0000
vn -0.6082 -0.7937 -0.0000
vn 1.0000 0.0000 -0.0000
vn -0.5789 -0.8154 -0.0000
vn -0.5628 -0.8266 -0.0000
vn 0.9155 0.4023 -0.0000
vn 0.9063 0.4226 -0.0000
vn 0.8681 0.4964 -0.0000
vn 0.8377 0.5461 -0.0000
vn -0.5611 -0.8277 -0.0000
vn -0.5100 -0.8602 -0.0000
vn 0.8364 0.5481 -0.0000
vn 0.8317 0.5552 -0.0000
vn -0.4255 -0.9050 -0.0000
vn 0.8158 0.5784 -0.0000
vn 0.7823 0.6229 -0.0000
vn -0.2738 -0.9618 -0.0000
vn 0.7160 0.6981 -0.0000
vn 0.6393 0.7689 -0.0000
vn 0.5628 0.8266 -0.0000
vn 0.4410 0.8975 -0.0000
vn 0.2818 0.9595 -0.0000
vn -0.1162 -0.9932 -0.0000
vn -0.0453 -0.9990 -0.0000
vn -0.0494 -0.9988 -0.0000
vn 0.1175 0.9931 -0.0000
vn 0.0120 0.9999 -0.0000
vn -0.0164 0.9999 -0.0000
vn -0.6638 0.7479 -0.0000
vn -0.0000 0.0000 1.0000
# 59 vertex normals

g Inward
usemtl Green
s 1
f 1//1 2//1 3//1 4//1 
f 5//1 4//1 3//1 6//1 
f 5//1 7//1 4//1 
f 1//1 4//1 8//1 
f 9//2 10//2 11//2 12//2 
f 13//2 12//2 11//2 14//2 
f 13//2 15//2 12//2 
f 9//2 12//2 16//2 
s 2
f 17//3 18//3 19//3 20//3 
s 4
f 20//4 19//4 21//4 22//4 
s 2
f 12//5 1//5 8//6 16//6 
s 4
f 16//7 8//7 4//8 9//8 
f 9//8 4//8 7//9 10//9 
f 10//9 7//9 5//10 11//10 
s 2
f 15//11 2//11 1//5 12//5 
f 23//12 24//12 2//11 15//11 
s 4
f 11//10 5//10 6//13 14//13 
f 14//13 6//13 3//14 13//14 
s 2
f 25//15 26//15 24//12 23//12 
s 4
f 13//14 3//14 27//16 28//16 
f 28//16 27//16 29//17 30//17 
s 2
f 31//18 32//18 26//15 25//15 
s 4
f 30//17 29//17 33//19 34//19 
f 34//19 33//19 35//20 36//20 
f 36//20 35//20 37//21 38//21 
f 38//21 37//21 39//22 40//22 
f 40//22 39//22 41//23 42//23 
s 2
f 43//24 44//24 32//18 31//18 
f 45//25 46//25 44//24 43//24 
f 22//26 21//26 46//25 45//25 
s 4
f 42//23 41//23 47//27 48//27 
f 48//27 47//27 49//28 50//28 
f 50//28 49//28 51//29 52//29 
s 2
f 52//4 51//4 53//4 54//4 
s 4
f 54//30 53//30 18//30 17//30 
s 1
f 55//1 56//1 57//1 58//1 
f 59//1 58//1 57//1 60//1 
f 59//1 61//1 58//1 
f 55//1 58//1 62//1 
f 63//2 64//2 65//2 66//2 
f 67//2 66//2 65//2 68//2 
f 67//2 69//2 66//2 
f 63//2 66//2 70//2 
s 2
f 71//31 72//31 73//31 74//31 
s 4
f 72//32 75//32 76//32 73//32 
s 2
f 65//33 64//34 56//34 55//33 
s 4
f 64//35 63//36 57//36 56//35 
f 63//36 70//37 60//37 57//36 
f 70//37 66//38 59//38 60//37 
s 2
f 68//39 65//33 55//33 62//39 
f 77//40 68//39 62//39 78//40 
s 4
f 66//38 69//41 61//41 59//38 
f 69//41 67//42 58//42 61//41 
s 2
f 79//43 77//40 78//40 80//43 
s 4
f 67//42 81//44 82//44 58//42 
f 81//44 83//45 84//45 82//44 
s 2
f 85//46 79//43 80//43 86//46 
s 4
f 83//45 87//47 88//47 84//45 
f 87//47 89//48 90//48 88//47 
f 89//48 91//49 92//49 90//48 
f 91//49 93//50 94//50 92//49 
f 93//50 95//51 96//51 94//50 
s 2
f 97//52 85//46 86//46 98//52 
f 99//53 97//52 98//52 100//53 
f 75//54 99//53 100//53 76//54 
s 4
f 95//51 101//55 102//55 96//51 
f 101//55 103//56 104//56 102//55 
f 103//56 105//57 106//57 104//56 
s 2
f 105//32 107//32 108//32 106//32 
s 4
f 107//58 71//58 74//58 108//58 
s 1
f 21//2 19//2 18//2 51//2 
f 51//2 18//2 53//2 
f 52//1 54//1 17//1 22//1 
f 22//1 17//1 20//1 
f 106//2 108//2 74//2 76//2 
f 76//2 74//2 73//2 
f 75//1 72//1 71//1 105//1 
f 105//1 71//1 107//1 
f 39//2 32//2 44//2 46//2 
f 47//2 39//2 46//2 49//2 
f 39//2 47//2 41//2 
f 31//1 40//1 42//1 43//1 
f 50//1 43//1 42//1 48//1 
f 50//1 45//1 43//1 
f 39//2 37//2 35//2 32//2 
f 26//2 32//2 35//2 33//2 
f 34//1 36//1 38//1 31//1 
f 38//1 40//1 31//1 
f 25//1 34//1 31//1 
f 3//2 2//2 24//2 26//2 
f 29//2 3//2 26//2 33//2 
f 3//2 29//2 27//2 
f 15//1 13//1 28//1 23//1 
f 34//1 23//1 28//1 30//1 
f 34//1 25//1 23//1 
f 51//2 49//2 46//2 21//2 
f 45//1 50//1 52//1 22//1 
f 102//2 104//2 106//2 100//2 
f 106//2 76//2 100//2 
f 98//2 102//2 100//2 
f 97//1 99//1 75//1 103//1 
f 75//1 105//1 103//1 
f 101//1 97//1 103//1 
f 80//59 90//59 92//2 94//2 
f 102//2 80//59 94//2 96//2 
f 86//2 80//59 102//2 98//2 
f 85//1 97//1 101//1 79//1 
f 89//1 79//1 101//1 93//1 
f 101//1 95//1 93//1 
f 89//1 93//1 91//1 
f 62//2 58//2 82//59 78//59 
f 81//1 67//1 68//1 77//1 
f 82//59 84//59 88//59 80//59 
f 88//59 90//59 80//59 
f 78//59 82//59 80//59 
f 89//1 87//1 83//1 79//1 
f 77//1 79//1 83//1 81//1 
# 91 polygons - 26 triangles

