# Apple ModelIO OBJ File: 8
mtllib 8.mtl
g 
v 1.51344 1.80234 0.7874
v 3.24172 1.64782 0.7874
v 1.94586 2.43918 0.7874
v -4.23 -2.61906 0.7874
v -2.61 -2.62376 0.7874
v -2.42872 -1.61258 0.7874
v 0 -6.55 0.7874
v 1.04886 -5.06836 0.7874
v 0.01312 -5.25 0.7874
v -3.71 3.24406 0.7874
v -2.09 3.2925 0.7874
v -1.94258 4.03972 0.7874
v 3.71 3.20032 0.7874
v -0.02188 6.55 0.7874
v 1.49594 4.66016 0.7874
v -1.94476 2.46652 0.7874
v -2.29578 -3.92812 0.7874
v -2.53144 -3.28688 0.7874
v 4.23 -2.66282 0.7874
v 2.42214 -1.63664 0.7874
v 2.61 -2.67626 0.7874
v -3.93878 -4.16102 0.7874
v -1.71644 -6.26876 0.7874
v -0.68972 -5.16356 0.7874
v 0.85118 1.37308 0.7874
v 0.0175 1.23 0.7874
v -0.03938 -0.05 0.7874
v 1.0084 -0.23602 0.7874
v 1.8586 -0.79406 0.7874
v 1.81906 0.62906 0.7874
v 2.65192 1.06296 0.7874
v 3.59292 2.3661 0.7874
v 2.09 3.205 0.7874
v -1.0609 -0.23382 0.7874
v -1.50906 1.80672 0.7874
v -3.23516 1.65218 0.7874
v -2.63278 1.06406 0.7874
v -1.77532 0.62906 0.7874
v -2.81906 0.18792 0.7874
v -3.59218 -0.52234 0.7874
v -4.07054 -1.46894 0.7874
v -1.88484 -0.78532 0.7874
v -0.83696 1.37418 0.7874
v 1.71644 -6.26984 0.7874
v 3.06516 -5.42938 0.7874
v 3.93878 -4.17742 0.7874
v 2.42762 -3.69836 0.7874
v 1.88046 -4.52344 0.7874
v -0.8304 5.10582 0.7874
v 0 5.25 0.7874
v -1.5286 6.31168 0.7874
v -2.7025 5.59672 0.7874
v -3.45812 4.53192 0.7874
v -1.50032 4.67328 0.7874
v 1.94148 4.00144 0.7874
v 3.45376 4.49364 0.7874
v 2.685 5.57484 0.7874
v 1.49578 6.30622 0.7874
v 0.82492 5.10254 0.7874
v -3.59128 2.3825 0.7874
v 4.07606 -1.55536 0.7874
v 3.61422 -0.61422 0.7874
v 2.85754 0.12558 0.7874
v -1.90148 -4.4873 0.7874
v -3.06516 -5.425 0.7874
v -1.34704 -4.90422 0.7874
v 1.94586 2.43918 0
v 3.24172 1.64782 0
v 1.51344 1.80234 0
v -2.42872 -1.61258 0
v -2.61 -2.62376 0
v -4.23 -2.61906 0
v 0.01312 -5.25 0
v 1.04886 -5.06836 0
v 0 -6.55 0
v -1.94258 4.03972 0
v -2.09 3.2925 0
v -3.71 3.24406 0
v 1.49594 4.66016 0
v -0.02188 6.55 0
v 3.71 3.20032 0
v -1.94476 2.46652 0
v -2.53144 -3.28688 0
v -2.29578 -3.92812 0
v 2.61 -2.67626 0
v 2.42214 -1.63664 0
v 4.23 -2.66282 0
v -0.68972 -5.16356 0
v -1.71644 -6.26876 0
v -3.93878 -4.16102 0
v -0.03938 -0.05 0
v 0.0175 1.23 0
v 0.85118 1.37308 0
v 1.81906 0.62906 0
v 1.8586 -0.79406 0
v 1.0084 -0.23602 0
v 2.65192 1.06296 0
v 3.59292 2.3661 0
v 2.09 3.205 0
v -1.0609 -0.23382 0
v -2.63278 1.06406 0
v -3.23516 1.65218 0
v -1.50906 1.80672 0
v -3.59218 -0.52234 0
v -2.81906 0.18792 0
v -1.77532 0.62906 0
v -4.07054 -1.46894 0
v -1.88484 -0.78532 0
v -0.83696 1.37418 0
v 3.06516 -5.42938 0
v 1.71644 -6.26984 0
v 3.93878 -4.17742 0
v 2.42762 -3.69836 0
v 1.88046 -4.52344 0
v 0 5.25 0
v -0.8304 5.10582 0
v -2.7025 5.59672 0
v -1.5286 6.31168 0
v -3.45812 4.53192 0
v -1.50032 4.67328 0
v 1.94148 4.00144 0
v 2.685 5.57484 0
v 3.45376 4.49364 0
v 1.49578 6.30622 0
v 0.82492 5.10254 0
v -3.59128 2.3825 0
v 3.61422 -0.61422 0
v 4.07606 -1.55536 0
v 2.85754 0.12558 0
v -1.90148 -4.4873 0
v -3.06516 -5.425 0
v -1.34704 -4.90422 0
vn 0 -0 1
vn 0 0 -1
vn -0.6995 0.7146 0
vn -0.9244 0.3814 0
vn 0.9289 -0.3704 -0
vn 0.9996 -0.0297 -0
vn -0.0256 0.9997 0
vn -0.368 0.9298 0
vn 0.9202 -0.3914 -0
vn 0.9999 -0.0104 -0
vn 0.9291 0.3698 0
vn 0.9725 0.2329 0
vn 0.8855 0.4646 0
vn -1 -0.0011 -0
vn -0.9271 -0.3748 -0
vn -0.0014 1 0
vn -0.364 0.9314 0
vn -0.3693 -0.9293 -0
vn 0.0012 -1 -0
vn 0.5897 -0.8076 -0
vn 0.462 -0.8869 -0
vn 0.8126 -0.5828 -0
vn 0.9562 -0.2927 -0
vn 0.9996 0.0281 0
vn -1 0.0008 0
vn 0.3746 -0.9272 -0
vn 0.7029 0.7113 0
vn -0.5409 0.8411 0
vn -0.3893 0.9211 0
vn -0.7974 0.6035 0
vn -0.9545 0.2982 0
vn -0.9997 -0.0244 -0
vn 0.71 -0.7042 -0
vn 0.3611 0.9325 0
vn -0.4524 -0.8918 -0
vn -0.5822 -0.813 -0
vn 0.3518 -0.9361 -0
vn -0.0003 -1 -0
vn 0.6885 -0.7252 -0
vn 0.9212 -0.3891 -0
vn 0.9997 -0.0259 -0
vn -0.9283 0.3719 0
vn -0.7052 0.709 0
vn -0.0025 -1 -0
vn 0.3641 -0.9314 -0
vn -0.3447 0.9387 0
vn 0.0012 1 0
vn -0.6819 0.7315 0
vn -0.919 0.3942 0
vn -0.9996 0.0281 0
vn 0.6942 -0.7198 -0
vn -0.9251 -0.3798 -0
vn 0.9184 0.3957 0
vn 0.6831 0.7303 0
vn 0.3479 0.9375 0
vn -0.3708 -0.9287 -0
vn -0.7029 -0.7113 -0
vn -0.9567 -0.291 -0
vn -0.8106 -0.5855 -0
vn -0.9227 -0.3855 -0
vn 0.9562 0.2928 0
vn 0.8101 0.5863 0
vn 0.5751 0.8181 0
vn 0.4363 0.8998 0
vn -0.704 -0.7102 -0
vn 0.7178 0.6962 0
vn -0.6907 -0.7231 -0
vn -0.3529 -0.9356 -0
vn 0.4884 0.8726 0
vn 0.2465 0.9691 0
usemtl material_1
f 1//1 2//1 3//1 
f 4//1 5//1 6//1 
f 7//1 8//1 9//1 
f 10//1 11//1 12//1 
f 13//1 14//1 15//1 
f 10//1 16//1 11//1 
f 4//1 17//1 18//1 
f 19//1 20//1 21//1 
f 22//1 23//1 24//1 
f 25//1 26//1 27//1 
f 27//1 28//1 29//1 30//1 
f 30//1 31//1 2//1 
f 2//1 32//1 13//1 
f 13//1 33//1 3//1 
f 1//1 25//1 27//1 
f 27//1 30//1 2//1 
f 2//1 13//1 3//1 
f 1//1 27//1 2//1 
f 34//1 27//1 26//1 
f 35//1 16//1 36//1 37//1 
f 38//1 39//1 40//1 
f 40//1 41//1 4//1 
f 42//1 34//1 26//1 
f 43//1 35//1 37//1 
f 38//1 40//1 4//1 
f 42//1 26//1 43//1 
f 43//1 37//1 38//1 
f 6//1 42//1 43//1 
f 43//1 38//1 4//1 
f 6//1 43//1 4//1 
f 7//1 44//1 45//1 
f 45//1 46//1 19//1 
f 7//1 45//1 19//1 
f 19//1 21//1 47//1 
f 19//1 47//1 48//1 
f 7//1 19//1 48//1 
f 7//1 48//1 8//1 
f 49//1 50//1 14//1 
f 14//1 51//1 52//1 
f 52//1 53//1 10//1 
f 54//1 49//1 14//1 
f 14//1 52//1 10//1 
f 54//1 14//1 10//1 
f 12//1 54//1 10//1 
f 55//1 33//1 13//1 
f 13//1 56//1 57//1 
f 57//1 58//1 14//1 
f 14//1 50//1 59//1 
f 15//1 55//1 13//1 
f 13//1 57//1 14//1 
f 14//1 59//1 15//1 
f 10//1 60//1 36//1 
f 10//1 36//1 16//1 
f 18//1 5//1 4//1 
f 4//1 22//1 17//1 
f 19//1 61//1 62//1 
f 62//1 63//1 30//1 
f 19//1 62//1 30//1 
f 30//1 29//1 20//1 
f 19//1 30//1 20//1 
f 64//1 17//1 22//1 
f 22//1 65//1 23//1 
f 23//1 7//1 9//1 
f 66//1 64//1 22//1 
f 23//1 9//1 24//1 
f 24//1 66//1 22//1 
f 67//2 68//2 69//2 
f 70//2 71//2 72//2 
f 73//2 74//2 75//2 
f 76//2 77//2 78//2 
f 79//2 80//2 81//2 
f 77//2 82//2 78//2 
f 83//2 84//2 72//2 
f 85//2 86//2 87//2 
f 88//2 89//2 90//2 
f 91//2 92//2 93//2 
f 94//2 95//2 96//2 91//2 
f 68//2 97//2 94//2 
f 81//2 98//2 68//2 
f 67//2 99//2 81//2 
f 91//2 93//2 69//2 
f 68//2 94//2 91//2 
f 67//2 81//2 68//2 
f 68//2 91//2 69//2 
f 92//2 91//2 100//2 
f 101//2 102//2 82//2 103//2 
f 104//2 105//2 106//2 
f 72//2 107//2 104//2 
f 92//2 100//2 108//2 
f 101//2 103//2 109//2 
f 72//2 104//2 106//2 
f 109//2 92//2 108//2 
f 106//2 101//2 109//2 
f 109//2 108//2 70//2 
f 72//2 106//2 109//2 
f 72//2 109//2 70//2 
f 110//2 111//2 75//2 
f 87//2 112//2 110//2 
f 87//2 110//2 75//2 
f 113//2 85//2 87//2 
f 114//2 113//2 87//2 
f 114//2 87//2 75//2 
f 74//2 114//2 75//2 
f 80//2 115//2 116//2 
f 117//2 118//2 80//2 
f 78//2 119//2 117//2 
f 80//2 116//2 120//2 
f 78//2 117//2 80//2 
f 78//2 80//2 120//2 
f 78//2 120//2 76//2 
f 81//2 99//2 121//2 
f 122//2 123//2 81//2 
f 80//2 124//2 122//2 
f 125//2 115//2 80//2 
f 81//2 121//2 79//2 
f 80//2 122//2 81//2 
f 79//2 125//2 80//2 
f 102//2 126//2 78//2 
f 82//2 102//2 78//2 
f 72//2 71//2 83//2 
f 84//2 90//2 72//2 
f 127//2 128//2 87//2 
f 94//2 129//2 127//2 
f 94//2 127//2 87//2 
f 86//2 95//2 94//2 
f 86//2 94//2 87//2 
f 90//2 84//2 130//2 
f 89//2 131//2 90//2 
f 73//2 75//2 89//2 
f 90//2 130//2 132//2 
f 88//2 73//2 89//2 
f 90//2 132//2 88//2 
f 1//3 3//4 67//4 69//3 
f 6//5 5//6 71//6 70//5 
f 9//7 8//8 74//8 73//7 
f 12//9 11//10 77//10 76//9 
f 11//10 16//11 82//11 77//10 
f 18//12 17//13 84//13 83//12 
f 21//14 20//15 86//15 85//14 
f 26//16 25//17 93//17 92//16 
f 28//18 27//19 91//19 96//18 
f 31//20 30//21 94//21 97//20 
f 2//22 31//20 97//20 68//22 
f 32//23 2//22 68//22 98//23 
f 13//24 32//23 98//23 81//24 
f 3//4 33//25 99//25 67//4 
f 25//17 1//3 69//3 93//17 
f 27//19 34//26 100//26 91//19 
f 16//11 35//27 103//27 82//11 
f 39//28 38//29 106//29 105//28 
f 40//30 39//28 105//28 104//30 
f 41//31 40//30 104//30 107//31 
f 4//32 41//31 107//31 72//32 
f 34//26 42//33 108//33 100//26 
f 35//27 43//34 109//34 103//27 
f 43//34 26//16 92//16 109//34 
f 38//35 37//36 101//36 106//35 
f 42//33 6//5 70//5 108//33 
f 44//37 7//38 75//38 111//37 
f 45//39 44//37 111//37 110//39 
f 46//40 45//39 110//39 112//40 
f 19//41 46//40 112//40 87//41 
f 47//42 21//14 85//14 113//42 
f 48//43 47//42 113//42 114//43 
f 8//8 48//43 114//43 74//8 
f 50//44 49//45 116//45 115//44 
f 51//46 14//47 80//47 118//46 
f 52//48 51//46 118//46 117//48 
f 53//49 52//48 117//48 119//49 
f 10//50 53//49 119//49 78//50 
f 49//45 54//51 120//51 116//45 
f 54//51 12//9 76//9 120//51 
f 33//25 55//52 121//52 99//25 
f 56//53 13//24 81//24 123//53 
f 57//54 56//53 123//53 122//54 
f 58//55 57//54 122//54 124//55 
f 14//47 58//55 124//55 80//47 
f 59//56 50//44 115//44 125//56 
f 55//52 15//57 79//57 121//52 
f 15//57 59//56 125//56 79//57 
f 60//58 10//50 78//50 126//58 
f 36//59 60//58 126//58 102//59 
f 37//36 36//59 102//59 101//36 
f 5//6 18//12 83//12 71//6 
f 22//60 4//32 72//32 90//60 
f 61//61 19//41 87//41 128//61 
f 62//62 61//61 128//61 127//62 
f 63//63 62//62 127//62 129//63 
f 30//64 63//63 129//63 94//64 
f 29//65 28//18 96//18 95//65 
f 20//15 29//65 95//65 86//15 
f 17//13 64//66 130//66 84//13 
f 65//67 22//60 90//60 131//67 
f 23//68 65//67 131//67 89//68 
f 7//38 23//68 89//68 75//38 
f 64//66 66//69 132//69 130//66 
f 24//70 9//7 73//7 88//70 
f 66//69 24//70 88//70 132//69 
s off
